{
    "title_page" : "Test Documentation",
    "favicon" : "srcs/img/favicon.png",
    "logo" : "srcs/img/logo.png",
    "loader" : "srcs/loader/cube",
    "main_home" : ["home.md", 1],
    "directory" : {
        "document" : "lang",
        "flag" : "srcs/img/flag"
    },
    "lang" : {
        "default" : "en",
        "en" : "united_state.svg",
        "fr" : "france.svg",
        "es" : "spain.svg",
        "de" : "germany.svg",
        "zh" : "china.svg"
    }
}
